Data Empowerment for Election Workers: All in One View
…
If we want to check that our tibble has been loaded, we can see the
contents of the data by typing its name: data in the
console:

R

data
## Try also
## view(interviews)
## head(interviews)

OUTPUT

# A tibble: 352,112 × 6
   checkin_id     checkin_length checkin_time        location    precinct device
   <chr>                   <dbl> <dttm>              <chr>       <chr>    <chr>
 1 CHECKIN_000001             45 2018-11-06 07:02:36 LOCATION_0… PRECINC… DEVIC…
 2 CHECKIN_000002             29 2018-11-06 07:04:09 LOCATION_0… PRECINC… DEVIC…
 3 CHECKIN_000003             65 2018-11-06 07:05:13 LOCATION_0… PRECINC… DEVIC…
 4 CHECKIN_000004             28 2018-11-06 07:06:26 LOCATION_0… PRECINC… DEVIC…
 5 CHECKIN_000005             17 2018-11-06 07:08:08 LOCATION_0… PRECINC… DEVIC…
 6 CHECKIN_000006             56 2018-11-06 07:08:32 LOCATION_0… PRECINC… DEVIC…
 7 CHECKIN_000007             64 2018-11-06 07:09:36 LOCATION_0… PRECINC… DEVIC…
 8 CHECKIN_000008            262 2018-11-06 07:10:18 LOCATION_0… PRECINC… DEVIC…
 9 CHECKIN_000009            245 2018-11-06 07:12:57 LOCATION_0… PRECINC… DEVIC…
10 CHECKIN_000010            260 2018-11-06 07:13:41 LOCATION_0… PRECINC… DEVIC…
# ℹ 352,102 more rows
…
OUTPUT

# A tibble: 1 × 1
  precinct
  <chr>
1 PRECINCT_001

R

#retrieves the 1st column of the tibble as a tibble
data[1]

OUTPUT

# A tibble: 352,112 × 1
   checkin_id
   <chr>
 1 CHECKIN_000001
 2 CHECKIN_000002
 3 CHECKIN_000003
 4 CHECKIN_000004
 5 CHECKIN_000005
 6 CHECKIN_000006
 7 CHECKIN_000007
 8 CHECKIN_000008
 9 CHECKIN_000009
10 CHECKIN_000010
# ℹ 352,102 more rows
…
: is a special function that creates numeric vectors of
integers in increasing or decreasing order, test 1:10 and
10:1 for instance.

You can also exclude certain indices of a tibble using the
“-” sign:

R

#retrieves the whole tibble (minus the first column)
data[, -1]

OUTPUT

# A tibble: 352,112 × 5
   checkin_length checkin_time        location     precinct     device
            <dbl> <dttm>              <chr>        <chr>        <chr>
 1             45 2018-11-06 07:02:36 LOCATION_001 PRECINCT_001 DEVICE_001
 2             29 2018-11-06 07:04:09 LOCATION_001 PRECINCT_001 DEVICE_001
 3             65 2018-11-06 07:05:13 LOCATION_001 PRECINCT_001 DEVICE_001
 4             28 2018-11-06 07:06:26 LOCATION_001 PRECINCT_001 DEVICE_001
 5             17 2018-11-06 07:08:08 LOCATION_001 PRECINCT_001 DEVICE_001
 6             56 2018-11-06 07:08:32 LOCATION_001 PRECINCT_001 DEVICE_002
 7             64 2018-11-06 07:09:36 LOCATION_001 PRECINCT_001 DEVICE_001
 8            262 2018-11-06 07:10:18 LOCATION_001 PRECINCT_001 DEVICE_001
 9            245 2018-11-06 07:12:57 LOCATION_001 PRECINCT_001 DEVICE_002
10            260 2018-11-06 07:13:41 LOCATION_001 PRECINCT_001 DEVICE_001
# ℹ 352,102 more rows
…
R

data$day <- day(times)
data$month <- month(times)
data$year <- year(times)
data$hour <- hour(times)
data$minute <- minute(times)
data$seconds <- second(times)

data

OUTPUT

# A tibble: 352,112 × 12
   checkin_id  checkin_length checkin_time        location precinct device   day
   <chr>                <dbl> <dttm>              <chr>    <chr>    <chr>  <int>
 1 CHECKIN_00…             45 2018-11-06 07:02:36 LOCATIO… PRECINC… DEVIC…     6
 2 CHECKIN_00…             29 2018-11-06 07:04:09 LOCATIO… PRECINC… DEVIC…     6
 3 CHECKIN_00…             65 2018-11-06 07:05:13 LOCATIO… PRECINC… DEVIC…     6
 4 CHECKIN_00…             28 2018-11-06 07:06:26 LOCATIO… PRECINC… DEVIC…     6
 5 CHECKIN_00…             17 2018-11-06 07:08:08 LOCATIO… PRECINC… DEVIC…     6
 6 CHECKIN_00…             56 2018-11-06 07:08:32 LOCATIO… PRECINC… DEVIC…     6
 7 CHECKIN_00…             64 2018-11-06 07:09:36 LOCATIO… PRECINC… DEVIC…     6
 8 CHECKIN_00…            262 2018-11-06 07:10:18 LOCATIO… PRECINC… DEVIC…     6
 9 CHECKIN_00…            245 2018-11-06 07:12:57 LOCATIO… PRECINC… DEVIC…     6
10 CHECKIN_00…            260 2018-11-06 07:13:41 LOCATIO… PRECINC… DEVIC…     6
# ℹ 352,102 more rows
# ℹ 5 more variables: month <dbl>, year <dbl>, hour <int>, minute <int>,
#   seconds <dbl>
…
In our case, for example, we are interested in seeing ONLY the
precinct id’s in our data set, so our arguments will be
data and precinct:

R

#selects JUST the precinct column
select(data, precinct)

OUTPUT

# A tibble: 352,112 × 1
   precinct
   <chr>
 1 PRECINCT_001
 2 PRECINCT_001
 3 PRECINCT_001
 4 PRECINCT_001
 5 PRECINCT_001
 6 PRECINCT_001
 7 PRECINCT_001
 8 PRECINCT_001
 9 PRECINCT_001
10 PRECINCT_001
# ℹ 352,102 more rows

Using the select function, you can also
select MULTIPLE columns. This can be particularly helpful with larger
data sets. Theoretically, this function can be performed using
subsetting instead of the select function,
but it’s best practice to use dplyr functions when possible:

R

#selects the precinct column AND the checkin_time column
select(data, precinct, checkin_time)

OUTPUT

# A tibble: 352,112 × 2
   precinct     checkin_time
   <chr>        <dttm>
 1 PRECINCT_001 2018-11-06 07:02:36
 2 PRECINCT_001 2018-11-06 07:04:09
 3 PRECINCT_001 2018-11-06 07:05:13
 4 PRECINCT_001 2018-11-06 07:06:26
 5 PRECINCT_001 2018-11-06 07:08:08
 6 PRECINCT_001 2018-11-06 07:08:32
 7 PRECINCT_001 2018-11-06 07:09:36
 8 PRECINCT_001 2018-11-06 07:10:18
 9 PRECINCT_001 2018-11-06 07:12:57
10 PRECINCT_001 2018-11-06 07:13:41
# ℹ 352,102 more rows
…
Our next function we will be covering is the
filter() function! This function allows us
to choose rows based on specific criteria, and accepts two arguments:
the original data set, and the condition to select the rows based off
of. In this case, we ONLY want rows where the precinct is
“PRECINCT_001”:

R

#filters rows where the precinct is "PRECINCT_001"
filter(data, precinct == "PRECINCT_001")

OUTPUT

# A tibble: 648 × 6
   checkin_id     checkin_length checkin_time        location    precinct device
   <chr>                   <dbl> <dttm>              <chr>       <chr>    <chr>
 1 CHECKIN_000001             45 2018-11-06 07:02:36 LOCATION_0… PRECINC… DEVIC…
 2 CHECKIN_000002             29 2018-11-06 07:04:09 LOCATION_0… PRECINC… DEVIC…
 3 CHECKIN_000003             65 2018-11-06 07:05:13 LOCATION_0… PRECINC… DEVIC…
 4 CHECKIN_000004             28 2018-11-06 07:06:26 LOCATION_0… PRECINC… DEVIC…
 5 CHECKIN_000005             17 2018-11-06 07:08:08 LOCATION_0… PRECINC… DEVIC…
 6 CHECKIN_000006             56 2018-11-06 07:08:32 LOCATION_0… PRECINC… DEVIC…
 7 CHECKIN_000007             64 2018-11-06 07:09:36 LOCATION_0… PRECINC… DEVIC…
 8 CHECKIN_000008            262 2018-11-06 07:10:18 LOCATION_0… PRECINC… DEVIC…
 9 CHECKIN_000009            245 2018-11-06 07:12:57 LOCATION_0… PRECINC… DEVIC…
10 CHECKIN_000010            260 2018-11-06 07:13:41 LOCATION_0… PRECINC… DEVIC…
# ℹ 638 more rows
…
For example, you could filter for all rows where the check-in length
is less-than or equal-to 20 seconds:

R

#filters rows with the "less-than or equal-to"/"<=" operator
filter(data, checkin_length <= 20)

OUTPUT

# A tibble: 32,264 × 6
   checkin_id     checkin_length checkin_time        location    precinct device
   <chr>                   <dbl> <dttm>              <chr>       <chr>    <chr>
 1 CHECKIN_000005             17 2018-11-06 07:08:08 LOCATION_0… PRECINC… DEVIC…
 2 CHECKIN_000017             19 2018-11-06 07:20:40 LOCATION_0… PRECINC… DEVIC…
 3 CHECKIN_000059             19 2018-11-06 08:07:12 LOCATION_0… PRECINC… DEVIC…
 4 CHECKIN_000079             20 2018-11-06 08:25:41 LOCATION_0… PRECINC… DEVIC…
 5 CHECKIN_000092             18 2018-11-06 08:37:45 LOCATION_0… PRECINC… DEVIC…
 6 CHECKIN_000094             19 2018-11-06 08:39:38 LOCATION_0… PRECINC… DEVIC…
 7 CHECKIN_000119             17 2018-11-06 08:57:22 LOCATION_0… PRECINC… DEVIC…
 8 CHECKIN_000162             19 2018-11-06 09:30:57 LOCATION_0… PRECINC… DEVIC…
 9 CHECKIN_000163             20 2018-11-06 09:32:14 LOCATION_0… PRECINC… DEVIC…
10 CHECKIN_000190             18 2018-11-06 09:49:41 LOCATION_0… PRECINC… DEVIC…
# ℹ 32,254 more rows
…
Below, let’s filter rows that include “PRECINCT_001” as the precinct
and “DEVICE_002” as the device:

R

#filters rows with the "and"/"&" logical operator
filter(data, precinct == "PRECINCT_001" & device == "DEVICE_002")

OUTPUT

# A tibble: 265 × 6
   checkin_id     checkin_length checkin_time        location    precinct device
   <chr>                   <dbl> <dttm>              <chr>       <chr>    <chr>
 1 CHECKIN_000006             56 2018-11-06 07:08:32 LOCATION_0… PRECINC… DEVIC…
 2 CHECKIN_000009            245 2018-11-06 07:12:57 LOCATION_0… PRECINC… DEVIC…
 3 CHECKIN_000019             41 2018-11-06 07:23:05 LOCATION_0… PRECINC… DEVIC…
 4 CHECKIN_000026             22 2018-11-06 07:33:38 LOCATION_0… PRECINC… DEVIC…
 5 CHECKIN_000028             21 2018-11-06 07:35:44 LOCATION_0… PRECINC… DEVIC…
 6 CHECKIN_000031             33 2018-11-06 07:37:36 LOCATION_0… PRECINC… DEVIC…
 7 CHECKIN_000041             56 2018-11-06 07:49:06 LOCATION_0… PRECINC… DEVIC…
 8 CHECKIN_000044             23 2018-11-06 07:52:08 LOCATION_0… PRECINC… DEVIC…
 9 CHECKIN_000046             24 2018-11-06 07:54:06 LOCATION_0… PRECINC… DEVIC…
10 CHECKIN_000057             48 2018-11-06 08:05:54 LOCATION_0… PRECINC… DEVIC…
# ℹ 255 more rows
…
Below, let’s filter rows that include “PRECINCT_001” or
“PRECINCT_002” as the precinct:

R

#filters rows with the "or"/"|" logical operator
filter(data, precinct == "PRECINCT_001" | precinct == "PRECINCT_002")

OUTPUT

# A tibble: 905 × 6
   checkin_id     checkin_length checkin_time        location    precinct device
   <chr>                   <dbl> <dttm>              <chr>       <chr>    <chr>
 1 CHECKIN_000001             45 2018-11-06 07:02:36 LOCATION_0… PRECINC… DEVIC…
 2 CHECKIN_000002             29 2018-11-06 07:04:09 LOCATION_0… PRECINC… DEVIC…
 3 CHECKIN_000003             65 2018-11-06 07:05:13 LOCATION_0… PRECINC… DEVIC…
 4 CHECKIN_000004             28 2018-11-06 07:06:26 LOCATION_0… PRECINC… DEVIC…
 5 CHECKIN_000005             17 2018-11-06 07:08:08 LOCATION_0… PRECINC… DEVIC…
 6 CHECKIN_000006             56 2018-11-06 07:08:32 LOCATION_0… PRECINC… DEVIC…
 7 CHECKIN_000007             64 2018-11-06 07:09:36 LOCATION_0… PRECINC… DEVIC…
 8 CHECKIN_000008            262 2018-11-06 07:10:18 LOCATION_0… PRECINC… DEVIC…
 9 CHECKIN_000009            245 2018-11-06 07:12:57 LOCATION_0… PRECINC… DEVIC…
10 CHECKIN_000010            260 2018-11-06 07:13:41 LOCATION_0… PRECINC… DEVIC…
# ℹ 895 more rows
…
R

#step 1: apply filter function and save it to a new object (filtered_data)
filtered_data <- filter(data, precinct == "PRECINCT_005")

#step 2: apply select function on the filtered_data object
select(filtered_data, precinct, checkin_time)

OUTPUT

# A tibble: 762 × 2
   precinct     checkin_time
   <chr>        <dttm>
 1 PRECINCT_005 2018-11-06 11:39:28
 2 PRECINCT_005 2018-11-06 11:26:09
 3 PRECINCT_005 2018-11-06 18:25:45
 4 PRECINCT_005 2018-11-06 07:01:07
 5 PRECINCT_005 2018-11-06 07:01:22
 6 PRECINCT_005 2018-11-06 07:02:02
 7 PRECINCT_005 2018-11-06 07:02:02
 8 PRECINCT_005 2018-11-06 07:02:38
 9 PRECINCT_005 2018-11-06 07:02:50
10 PRECINCT_005 2018-11-06 07:03:23
# ℹ 752 more rows

Nested Functions: Instead of saving intermediate results, you can
instead put your first function inside the second. This is called
nesting, and, while it works, can become confusing if more than two
functions are put together.

R

# Do it all in one go, nesting the functions
select(filter(data, precinct == "PRECINCT_005"), precinct, checkin_time)

OUTPUT

# A tibble: 762 × 2
   precinct     checkin_time
   <chr>        <dttm>
 1 PRECINCT_005 2018-11-06 11:39:28
 2 PRECINCT_005 2018-11-06 11:26:09
 3 PRECINCT_005 2018-11-06 18:25:45
 4 PRECINCT_005 2018-11-06 07:01:07
 5 PRECINCT_005 2018-11-06 07:01:22
 6 PRECINCT_005 2018-11-06 07:02:02
 7 PRECINCT_005 2018-11-06 07:02:02
 8 PRECINCT_005 2018-11-06 07:02:38
 9 PRECINCT_005 2018-11-06 07:02:50
10 PRECINCT_005 2018-11-06 07:03:23
# ℹ 752 more rows
…
R

#takes the data THEN applies the filter function THEN applies the select function
data %>%
  filter(precinct == "PRECINCT_005") %>%
  select(precinct, checkin_time)

OUTPUT

# A tibble: 762 × 2
   precinct     checkin_time
   <chr>        <dttm>
 1 PRECINCT_005 2018-11-06 11:39:28
 2 PRECINCT_005 2018-11-06 11:26:09
 3 PRECINCT_005 2018-11-06 18:25:45
 4 PRECINCT_005 2018-11-06 07:01:07
 5 PRECINCT_005 2018-11-06 07:01:22
 6 PRECINCT_005 2018-11-06 07:02:02
 7 PRECINCT_005 2018-11-06 07:02:02
 8 PRECINCT_005 2018-11-06 07:02:38
 9 PRECINCT_005 2018-11-06 07:02:50
10 PRECINCT_005 2018-11-06 07:03:23
# ℹ 752 more rows
…
   Show me the solution 

R

data %>%
  filter(device == "DEVICE_738") %>%
  select(precinct, checkin_time, device)

OUTPUT

# A tibble: 134 × 3
   precinct     checkin_time        device
   <chr>        <dttm>              <chr>
 1 PRECINCT_332 2018-11-06 07:02:26 DEVICE_738
 2 PRECINCT_332 2018-11-06 07:03:10 DEVICE_738
 3 PRECINCT_332 2018-11-06 07:03:56 DEVICE_738
 4 PRECINCT_332 2018-11-06 07:04:27 DEVICE_738
 5 PRECINCT_332 2018-11-06 07:05:01 DEVICE_738
 6 PRECINCT_332 2018-11-06 07:06:00 DEVICE_738
 7 PRECINCT_332 2018-11-06 07:06:36 DEVICE_738
 8 PRECINCT_332 2018-11-06 07:07:03 DEVICE_738
 9 PRECINCT_332 2018-11-06 07:07:45 DEVICE_738
10 PRECINCT_332 2018-11-06 07:08:24 DEVICE_738
# ℹ 124 more rows
…
Below, we will be grouping the data by location, and filtering the
rows to only include the check-in(s) with the longest check-in length
for each location:

R

#groups the data by location and applies filter
data %>%
  group_by(location) %>%
  filter(checkin_length == max(checkin_length))

OUTPUT

# A tibble: 561 × 6
# Groups:   location [417]
   checkin_id     checkin_length checkin_time        location    precinct device
   <chr>                   <dbl> <dttm>              <chr>       <chr>    <chr>
 1 CHECKIN_000032            300 2018-11-06 07:37:43 LOCATION_0… PRECINC… DEVIC…
 2 CHECKIN_000106            300 2018-11-06 08:51:39 LOCATION_0… PRECINC… DEVIC…
 3 CHECKIN_000640            300 2018-11-06 19:47:13 LOCATION_0… PRECINC… DEVIC…
 4 CHECKIN_000839            300 2018-11-06 16:50:29 LOCATION_0… PRECINC… DEVIC…
 5 CHECKIN_001137            299 2018-11-06 10:03:21 LOCATION_0… PRECINC… DEVIC…
 6 CHECKIN_002362            298 2018-11-06 19:09:12 LOCATION_0… PRECINC… DEVIC…
 7 CHECKIN_002572            299 2018-11-06 10:46:01 LOCATION_0… PRECINC… DEVIC…
 8 CHECKIN_003919            300 2018-11-06 18:05:53 LOCATION_0… PRECINC… DEVIC…
 9 CHECKIN_004805            298 2018-11-06 17:57:33 LOCATION_0… PRECINC… DEVIC…
10 CHECKIN_005944            300 2018-11-06 16:17:04 LOCATION_0… PRECINC… DEVIC…
# ℹ 551 more rows
…
Below, we will be doing the same calculation that we did above, but
instead of grouping only by location, we will be grouping by location
and device:

R

#groups the data by location and applies filter
data %>%
  group_by(location, device) %>%
  filter(checkin_length == max(checkin_length))

OUTPUT

# A tibble: 1,344 × 6
# Groups:   location, device [1,215]
   checkin_id     checkin_length checkin_time        location    precinct device
   <chr>                   <dbl> <dttm>              <chr>       <chr>    <chr>
 1 CHECKIN_000032            300 2018-11-06 07:37:43 LOCATION_0… PRECINC… DEVIC…
 2 CHECKIN_000106            300 2018-11-06 08:51:39 LOCATION_0… PRECINC… DEVIC…
 3 CHECKIN_000640            300 2018-11-06 19:47:13 LOCATION_0… PRECINC… DEVIC…
 4 CHECKIN_000774            295 2018-11-06 12:52:23 LOCATION_0… PRECINC… DEVIC…
 5 CHECKIN_000839            300 2018-11-06 16:50:29 LOCATION_0… PRECINC… DEVIC…
 6 CHECKIN_001015            296 2018-11-06 08:36:18 LOCATION_0… PRECINC… DEVIC…
 7 CHECKIN_001137            299 2018-11-06 10:03:21 LOCATION_0… PRECINC… DEVIC…
 8 CHECKIN_001792            290 2018-11-06 08:00:47 LOCATION_0… PRECINC… DEVIC…
 9 CHECKIN_002210             75 2018-11-06 16:11:09 LOCATION_0… PRECINC… DEVIC…
10 CHECKIN_002362            298 2018-11-06 19:09:12 LOCATION_0… PRECINC… DEVIC…
# ℹ 1,334 more rows
…
After completing analysis, you may want to remove grouping! To do so,
you can use the ungroup() function:

R

data %>%
  group_by(location, device) %>% 
  filter(checkin_length == max(checkin_length)) %>%
  ungroup()

OUTPUT

# A tibble: 1,344 × 6
   checkin_id     checkin_length checkin_time        location    precinct device
   <chr>                   <dbl> <dttm>              <chr>       <chr>    <chr>
 1 CHECKIN_000032            300 2018-11-06 07:37:43 LOCATION_0… PRECINC… DEVIC…
 2 CHECKIN_000106            300 2018-11-06 08:51:39 LOCATION_0… PRECINC… DEVIC…
 3 CHECKIN_000640            300 2018-11-06 19:47:13 LOCATION_0… PRECINC… DEVIC…
 4 CHECKIN_000774            295 2018-11-06 12:52:23 LOCATION_0… PRECINC… DEVIC…
 5 CHECKIN_000839            300 2018-11-06 16:50:29 LOCATION_0… PRECINC… DEVIC…
 6 CHECKIN_001015            296 2018-11-06 08:36:18 LOCATION_0… PRECINC… DEVIC…
 7 CHECKIN_001137            299 2018-11-06 10:03:21 LOCATION_0… PRECINC… DEVIC…
 8 CHECKIN_001792            290 2018-11-06 08:00:47 LOCATION_0… PRECINC… DEVIC…
 9 CHECKIN_002210             75 2018-11-06 16:11:09 LOCATION_0… PRECINC… DEVIC…
10 CHECKIN_002362            298 2018-11-06 19:09:12 LOCATION_0… PRECINC… DEVIC…
# ℹ 1,334 more rows
…
R

data %>%
  group_by(precinct) %>%
  summarize(total_checkins = n())

OUTPUT

# A tibble: 420 × 2
   precinct     total_checkins
   <chr>                 <int>
 1 PRECINCT_001            648
 2 PRECINCT_002            257
 3 PRECINCT_003            806
 4 PRECINCT_004            466
 5 PRECINCT_005            762
 6 PRECINCT_006            676
 7 PRECINCT_007           1347
 8 PRECINCT_008           1652
 9 PRECINCT_009            742
10 PRECINCT_010            882
# ℹ 410 more rows
…
R

data %>%
  group_by(precinct, device) %>%
  summarize(total_checkins = n())

OUTPUT

`summarise()` has grouped output by 'precinct'. You can override using the
`.groups` argument.

OUTPUT

# A tibble: 1,778 × 3
# Groups:   precinct [420]
   precinct     device     total_checkins
   <chr>        <chr>               <int>
 1 PRECINCT_001 DEVICE_001            381
 2 PRECINCT_001 DEVICE_002            265
 3 PRECINCT_001 DEVICE_671              1
 4 PRECINCT_001 DEVICE_844              1
 5 PRECINCT_002 DEVICE_003            125
 6 PRECINCT_002 DEVICE_004            131
 7 PRECINCT_002 DEVICE_536              1
 8 PRECINCT_003 DEVICE_005            449
 9 PRECINCT_003 DEVICE_006            357
10 PRECINCT_004 DEVICE_006              1
# ℹ 1,768 more rows
…
R

data %>%
  group_by(precinct) %>%
  summarize(
    total_checkins = n(),
    unique_devices = n_distinct(device)
  )

OUTPUT

# A tibble: 420 × 3
   precinct     total_checkins unique_devices
   <chr>                 <int>          <int>
 1 PRECINCT_001            648              4
 2 PRECINCT_002            257              3
 3 PRECINCT_003            806              2
 4 PRECINCT_004            466              5
 5 PRECINCT_005            762              5
 6 PRECINCT_006            676              2
 7 PRECINCT_007           1347              5
 8 PRECINCT_008           1652              5
 9 PRECINCT_009            742              7
10 PRECINCT_010            882              6
# ℹ 410 more rows
…
